{
  "v": "5.6.5",
  "fr": 24,
  "ip": 0,
  "op": 49,
  "w": 404,
  "h": 841,
  "nm": "paycell logo",
  "ddd": 0,
  "assets": [],
  "layers": [
    {
      "ddd": 0,
      "ind": 1,
      "ty": 4,
      "nm": "Layer 1 Outlines 2",
      "sr": 1,
      "ks": {
        "o": {
          "a": 0,
          "k": 100,
          "ix": 11
        },
        "r": {
          "a": 0,
          "k": 0,
          "ix": 10
        },
        "p": {
          "a": 0,
          "k": [
            201.673,
            420.173,
            0
          ],
          "ix": 2
        },
        "a": {
          "a": 0,
          "k": [
            201.673,
            420.173,
            0
          ],
          "ix": 1
        },
        "s": {
          "a": 0,
          "k": [
            100,
            100,
            100
          ],
          "ix": 6
        }
      },
      "ao": 0,
      "shapes": [
        {
          "ty": "gr",
          "it": [
            {
              "ind": 0,
              "ty": "sh",
              "ix": 1,
              "ks": {
                "a": 0,
                "k": {
                  "i": [
                    [
                      -4.784,
                      21.717
                    ],
                    [
                      -29.652,
                      -6.536
                    ],
                    [
                      0,
                      0
                    ],
                    [
                      6.532,
                      -29.651
                    ],
                    [
                      29.652,
                      6.536
                    ],
                    [
                      2.106,
                      0.745
                    ],
                    [
                      0,
                      0
                    ],
                    [
                      -1.988,
                      -0.542
                    ],
                    [
                      -3.129,
                      11.48
                    ],
                    [
                      11.479,
                      3.129
                    ],
                    [
                      3.139,
                      -11.473
                    ],
                    [
                      0.041,
                      -0.165
                    ],
                    [
                      0,
                      0
                    ],
                    [
                      0,
                      0
                    ]
                  ],
                  "o": [
                    [
                      6.545,
                      -29.649
                    ],
                    [
                      0,
                      0
                    ],
                    [
                      29.647,
                      6.548
                    ],
                    [
                      -6.546,
                      29.649
                    ],
                    [
                      -2.181,
                      -0.484
                    ],
                    [
                      0,
                      0
                    ],
                    [
                      1.754,
                      1.08
                    ],
                    [
                      11.48,
                      3.127
                    ],
                    [
                      3.127,
                      -11.481
                    ],
                    [
                      -11.476,
                      -3.132
                    ],
                    [
                      -0.041,
                      0.171
                    ],
                    [
                      0,
                      0
                    ],
                    [
                      0,
                      0
                    ],
                    [
                      -18.228,
                      -12.738
                    ]
                  ],
                  "v": [
                    [
                      -54.579,
                      -11.853
                    ],
                    [
                      10.956,
                      -53.699
                    ],
                    [
                      10.984,
                      -53.681
                    ],
                    [
                      52.831,
                      11.853
                    ],
                    [
                      -12.704,
                      53.699
                    ],
                    [
                      -19.14,
                      51.854
                    ],
                    [
                      -12.178,
                      18.341
                    ],
                    [
                      -6.538,
                      20.788
                    ],
                    [
                      19.913,
                      5.665
                    ],
                    [
                      4.79,
                      -20.788
                    ],
                    [
                      -21.668,
                      -5.688
                    ],
                    [
                      -21.792,
                      -5.18
                    ],
                    [
                      -21.934,
                      -4.491
                    ],
                    [
                      -32.372,
                      45.065
                    ]
                  ],
                  "c": true
                },
                "ix": 2
              },
              "nm": "Path 1",
              "mn": "ADBE Vector Shape - Group",
              "hd": false
            },
            {
              "ty": "mm",
              "mm": 1,
              "nm": "Merge Paths 1",
              "mn": "ADBE Vector Filter - Merge",
              "hd": false
            },
            {
              "ty": "st",
              "c": {
                "a": 0,
                "k": [
                  1,
                  1,
                  1,
                  1
                ],
                "ix": 3
              },
              "o": {
                "a": 0,
                "k": 100,
                "ix": 4
              },
              "w": {
                "a": 0,
                "k": 5.789,
                "ix": 5
              },
              "lc": 1,
              "lj": 1,
              "ml": 10,
              "bm": 0,
              "nm": "Stroke 1",
              "mn": "ADBE Vector Graphic - Stroke",
              "hd": false
            },
            {
              "ty": "tr",
              "p": {
                "a": 0,
                "k": [
                  209.742,
                  388.173
                ],
                "ix": 2
              },
              "a": {
                "a": 0,
                "k": [
                  0,
                  0
                ],
                "ix": 1
              },
              "s": {
                "a": 0,
                "k": [
                  100,
                  100
                ],
                "ix": 3
              },
              "r": {
                "a": 0,
                "k": 0,
                "ix": 6
              },
              "o": {
                "a": 0,
                "k": 100,
                "ix": 7
              },
              "sk": {
                "a": 0,
                "k": 0,
                "ix": 4
              },
              "sa": {
                "a": 0,
                "k": 0,
                "ix": 5
              },
              "nm": "Transform"
            }
          ],
          "nm": "Group 1",
          "np": 3,
          "cix": 2,
          "bm": 0,
          "ix": 1,
          "mn": "ADBE Vector Group",
          "hd": false
        },
        {
          "ty": "tm",
          "s": {
            "a": 1,
            "k": [
              {
                "i": {
                  "x": [
                    0.833
                  ],
                  "y": [
                    0.833
                  ]
                },
                "o": {
                  "x": [
                    0.167
                  ],
                  "y": [
                    0.167
                  ]
                },
                "t": 0,
                "s": [
                  0
                ]
              },
              {
                "i": {
                  "x": [
                    0.833
                  ],
                  "y": [
                    0.833
                  ]
                },
                "o": {
                  "x": [
                    0.167
                  ],
                  "y": [
                    0.167
                  ]
                },
                "t": 24,
                "s": [
                  100
                ]
              },
              {
                "t": 48,
                "s": [
                  100
                ]
              }
            ],
            "ix": 1,
            "x": "var $bm_rt;\n$bm_rt = loopOut('cycle');"
          },
          "e": {
            "a": 1,
            "k": [
              {
                "i": {
                  "x": [
                    0.833
                  ],
                  "y": [
                    0.833
                  ]
                },
                "o": {
                  "x": [
                    0.167
                  ],
                  "y": [
                    0.167
                  ]
                },
                "t": 0,
                "s": [
                  0
                ]
              },
              {
                "i": {
                  "x": [
                    0.833
                  ],
                  "y": [
                    0.833
                  ]
                },
                "o": {
                  "x": [
                    0.167
                  ],
                  "y": [
                    0.167
                  ]
                },
                "t": 24,
                "s": [
                  0
                ]
              },
              {
                "t": 48,
                "s": [
                  100
                ]
              }
            ],
            "ix": 2,
            "x": "var $bm_rt;\n$bm_rt = loopOut('cycle');"
          },
          "o": {
            "a": 0,
            "k": 360,
            "ix": 3
          },
          "m": 1,
          "ix": 2,
          "nm": "Trim Paths 1",
          "mn": "ADBE Vector Filter - Trim",
          "hd": false
        }
      ],
      "ip": 0,
      "op": 1416,
      "st": 0,
      "bm": 0
    },
    {
      "ddd": 0,
      "ind": 2,
      "ty": 4,
      "nm": "Layer 1 Outlines",
      "sr": 1,
      "ks": {
        "o": {
          "a": 0,
          "k": 100,
          "ix": 11
        },
        "r": {
          "a": 0,
          "k": 0,
          "ix": 10
        },
        "p": {
          "a": 0,
          "k": [
            201.673,
            420.173,
            0
          ],
          "ix": 2
        },
        "a": {
          "a": 0,
          "k": [
            201.673,
            420.173,
            0
          ],
          "ix": 1
        },
        "s": {
          "a": 0,
          "k": [
            100,
            100,
            100
          ],
          "ix": 6
        }
      },
      "ao": 0,
      "shapes": [
        {
          "ty": "gr",
          "it": [
            {
              "ind": 0,
              "ty": "sh",
              "ix": 1,
              "ks": {
                "a": 0,
                "k": {
                  "i": [
                    [
                      -1.011,
                      3.758
                    ],
                    [
                      -3.758,
                      -1.011
                    ],
                    [
                      1.012,
                      -3.758
                    ],
                    [
                      3.758,
                      1.012
                    ]
                  ],
                  "o": [
                    [
                      1.037,
                      -3.751
                    ],
                    [
                      3.751,
                      1.037
                    ],
                    [
                      -1.036,
                      3.751
                    ],
                    [
                      -3.751,
                      -1.036
                    ]
                  ],
                  "v": [
                    [
                      -8.058,
                      -2.236
                    ],
                    [
                      0.606,
                      -7.188
                    ],
                    [
                      5.557,
                      1.477
                    ],
                    [
                      -3.107,
                      6.428
                    ]
                  ],
                  "c": true
                },
                "ix": 2
              },
              "nm": "Path 2",
              "mn": "ADBE Vector Shape - Group",
              "hd": false
            },
            {
              "ty": "mm",
              "mm": 1,
              "nm": "Merge Paths 1",
              "mn": "ADBE Vector Filter - Merge",
              "hd": false
            },
            {
              "ty": "tm",
              "s": {
                "a": 1,
                "k": [
                  {
                    "i": {
                      "x": [
                        0.833
                      ],
                      "y": [
                        0.833
                      ]
                    },
                    "o": {
                      "x": [
                        0.167
                      ],
                      "y": [
                        0.167
                      ]
                    },
                    "t": 0,
                    "s": [
                      100
                    ]
                  },
                  {
                    "i": {
                      "x": [
                        0.833
                      ],
                      "y": [
                        0.833
                      ]
                    },
                    "o": {
                      "x": [
                        0.167
                      ],
                      "y": [
                        0.167
                      ]
                    },
                    "t": 24,
                    "s": [
                      2
                    ]
                  },
                  {
                    "t": 48,
                    "s": [
                      0
                    ]
                  }
                ],
                "ix": 1,
                "x": "var $bm_rt;\n$bm_rt = loopOut('cycle');"
              },
              "e": {
                "a": 1,
                "k": [
                  {
                    "i": {
                      "x": [
                        0.833
                      ],
                      "y": [
                        0.833
                      ]
                    },
                    "o": {
                      "x": [
                        0.167
                      ],
                      "y": [
                        0.167
                      ]
                    },
                    "t": 0,
                    "s": [
                      100
                    ]
                  },
                  {
                    "i": {
                      "x": [
                        0.833
                      ],
                      "y": [
                        0.833
                      ]
                    },
                    "o": {
                      "x": [
                        0.167
                      ],
                      "y": [
                        0.167
                      ]
                    },
                    "t": 24,
                    "s": [
                      100
                    ]
                  },
                  {
                    "t": 48,
                    "s": [
                      0
                    ]
                  }
                ],
                "ix": 2,
                "x": "var $bm_rt;\n$bm_rt = loopOut('cycle');"
              },
              "o": {
                "a": 0,
                "k": 0,
                "ix": 3
              },
              "m": 1,
              "ix": 3,
              "nm": "Trim Paths 1",
              "mn": "ADBE Vector Filter - Trim",
              "hd": false
            },
            {
              "ty": "st",
              "c": {
                "a": 0,
                "k": [
                  1,
                  1,
                  1,
                  1
                ],
                "ix": 3
              },
              "o": {
                "a": 0,
                "k": 100,
                "ix": 4
              },
              "w": {
                "a": 0,
                "k": 5.789,
                "ix": 5
              },
              "lc": 1,
              "lj": 1,
              "ml": 10,
              "bm": 0,
              "nm": "Stroke 1",
              "mn": "ADBE Vector Graphic - Stroke",
              "hd": false
            },
            {
              "ty": "tr",
              "p": {
                "a": 0,
                "k": [
                  209.742,
                  388.173
                ],
                "ix": 2
              },
              "a": {
                "a": 0,
                "k": [
                  0,
                  0
                ],
                "ix": 1
              },
              "s": {
                "a": 0,
                "k": [
                  100,
                  100
                ],
                "ix": 3
              },
              "r": {
                "a": 0,
                "k": 0,
                "ix": 6
              },
              "o": {
                "a": 0,
                "k": 100,
                "ix": 7
              },
              "sk": {
                "a": 0,
                "k": 0,
                "ix": 4
              },
              "sa": {
                "a": 0,
                "k": 0,
                "ix": 5
              },
              "nm": "Transform"
            }
          ],
          "nm": "Group 1",
          "np": 4,
          "cix": 2,
          "bm": 0,
          "ix": 1,
          "mn": "ADBE Vector Group",
          "hd": false
        }
      ],
      "ip": 0,
      "op": 1416,
      "st": 0,
      "bm": 0
    }
  ],
  "markers": []
}