{
  "token": "eyJ0eXAiOiJKV1QiLCJhbGciOiJIUzI1NiJ9.eyJpc3MiOiJodHRwOlwvXC9haXJhbG8udGVzdFwvYXBpXC9hdXRoXC9lbWFpbFwvdmVyaWZ5IiwiaWF0IjoxNTg3NjUzNjc0LCJuYmYiOjE1ODc2NTM2NzQsImp0aSI6InFQYTRqVjRCN1BWVWFpODMiLCJzdWIiOjczNzkxLCJwcnYiOiIyM2JkNWM4OTQ5ZjYwMGFkYjM5ZTcwMWM0MDA4NzJkYjdhNTk3NmY3In0.4ONps4AXB0bQTI0mv-EjdyPhD2-yyCWZeOGoyNFNpjY",
  "user": {
    "id": 73791,
    "name": "Utku Yıldırım",
    "email": "utku+3@airalo.com",
    "is_newsletter": false,
    "kyc_status": null,
    "kyc_expiry": null,
    "kyc_rejection_reason": null,
    "can_set_password": false,
    "airmoney": 1,
    "is_request_limit": false
  },
  "reward": {
    "title": "Airalo Welcome Reward",
    "description": "Welcome to Airalo. Here's $1 Airmoney as a welcome gift.",
    "image": null
  },
  "voucher": {
    "amount": 2,
    "ip": "46.221.243.27",
    "created_at": "2020-04-28 13:55:55",
    "id": 1450,
    "voucher_type": "airmoney",
    "title": "With Image Test",
    "reward": {
      "title": "Test Airmoney",
      "description": "This is a test description, make sure your pop-up appread correctly.",
      "image": {
        "width": 1080,
        "height": 1080,
        "url": "https://staging.airalo.com/images/756bfa20-8325-423c-96dc-8887d83cab12.png"
      }
    }
  }
}