[
  {
    "addresses": [],
    "emails": [],
    "events": [],
    "id": 3699,
    "phoneNumbers": [],
    "websites": []
  },
  {
    "addresses": [],
    "emails": [],
    "events": [],
    "id": 3700,
    "phoneNumbers": [],
    "websites": []
  },
  {
    "addresses": [],
    "emails": [],
    "events": [],
    "id": 3701,
    "phoneNumbers": [],
    "websites": []
  },
  {
    "addresses": [],
    "emails": [],
    "events": [],
    "id": 3702,
    "phoneNumbers": [],
    "websites": []
  },
  {
    "addresses": [],
    "emails": [],
    "events": [],
    "id": 3781,
    "phoneNumbers": [],
    "websites": []
  },
  {
    "addresses": [],
    "emails": [],
    "events": [],
    "id": 3782,
    "phoneNumbers": [],
    "websites": []
  },
  {
    "addresses": [],
    "emails": [],
    "events": [],
    "id": 3965,
    "phoneNumbers": [],
    "websites": []
  },
  {
    "addresses": [],
    "emails": [],
    "events": [],
    "id": 4203,
    "phoneNumbers": [],
    "websites": []
  },
  {
    "addresses": [],
    "emails": [],
    "events": [],
    "id": 4204,
    "phoneNumbers": [],
    "websites": []
  },
  {
    "addresses": [],
    "displayName": "0534 698 56 56",
    "emails": [],
    "events": [],
    "id": 4290,
    "phoneNumbers": [
      {
        "normalizedNumber": "+905346985656",
        "number": "0534 698 56 56",
        "type": "MOBILE"
      }
    ],
    "websites": []
  },
  {
    "addresses": [],
    "displayName": "A",
    "emails": [],
    "events": [],
    "givenName": "A",
    "id": 4289,
    "phoneNumbers": [
      {
        "number": "285 688 09 09",
        "type": "MOBILE"
      }
    ],
    "websites": []
  },
  {
    "addresses": [],
    "displayName": "AYBALA HASANCEBI",
    "emails": [],
    "events": [],
    "familyName": "HASANCEBI",
    "givenName": "AYBALA",
    "id": 4094,
    "phoneNumbers": [],
    "websites": []
  },
  {
    "addresses": [],
    "displayName": "Abant Yeşil Ev",
    "emails": [],
    "events": [],
    "familyName": "Ev",
    "givenName": "Abant",
    "id": 3250,
    "phoneNumbers": [
      {
        "normalizedNumber": "+905340768585",
        "number": "+90 534 076 85 85",
        "type": "MOBILE"
      },
      {
        "normalizedNumber": "+905340768585",
        "number": "+905340768585",
        "type": "MOBILE"
      }
    ],
    "websites": []
  },
  {
    "addresses": [],
    "companyName": "Akbank",
    "displayName": "Abdullah Bakmaz",
    "emails": [],
    "events": [],
    "familyName": "Bakmaz",
    "givenName": "Abdullah",
    "id": 3659,
    "phoneNumbers": [
      {
        "normalizedNumber": "+905379341615",
        "number": "+90 537 934 16 15",
        "type": "MOBILE"
      },
      {
        "normalizedNumber": "+905379341615",
        "number": "+905379341615",
        "type": "MOBILE"
      }
    ],
    "websites": []
  },
  {
    "addresses": [],
    "displayName": "Abdurrahman",
    "emails": [],
    "events": [],
    "givenName": "Abdurrahman",
    "id": 3215,
    "phoneNumbers": [
      {
        "normalizedNumber": "+905385416889",
        "number": "05385416889",
        "type": "MOBILE"
      }
    ],
    "websites": []
  },
  {
    "addresses": [],
    "displayName": "Alarslan Emmi Akpınar",
    "emails": [],
    "events": [],
    "familyName": "Emmi Akpınar",
    "givenName": "Alarslan",
    "id": 2990,
    "phoneNumbers": [
      {
        "normalizedNumber": "+905425562500",
        "number": "+905425562500",
        "type": "MOBILE"
      }
    ],
    "websites": []
  },
  {
    "addresses": [],
    "companyName": "Adesso",
    "displayName": "Abdürrahim Sönmez",
    "emails": [],
    "events": [],
    "familyName": "Sönmez",
    "givenName": "Abdürrahim",
    "id": 3660,
    "phoneNumbers": [
      {
        "normalizedNumber": "+905383264184",
        "number": "+905383264184",
        "type": "MOBILE"
      },
      {
        "normalizedNumber": "+905383264184",
        "number": "+90 538 326 41 84",
        "type": "MOBILE"
      }
    ],
    "websites": []
  },
  {
    "addresses": [],
    "displayName": "Abdüssamed Tezer",
    "emails": [],
    "events": [],
    "familyName": "Tezer",
    "givenName": "Abdüssamed",
    "id": 4126,
    "phoneNumbers": [
      {
        "normalizedNumber": "+905419239238",
        "number": "+905419239238",
        "type": "MOBILE"
      },
      {
        "normalizedNumber": "+905419239238",
        "number": "+90 541 923 92 38",
        "type": "MOBILE"
      },
      {
        "normalizedNumber": "+905419239238",
        "number": "+90 541 923 92 38",
        "type": "OTHER"
      }
    ],
    "websites": []
  },
  {
    "addresses": [],
    "displayName": "Adalı Demirel",
    "emails": [],
    "events": [],
    "familyName": "Demirel",
    "givenName": "Adalı",
    "id": 2950,
    "phoneNumbers": [
      {
        "normalizedNumber": "+19143256414",
        "number": "+19143256414",
        "type": "MOBILE"
      }
    ],
    "websites": []
  },
  {
    "addresses": [],
    "displayName": "Afife Atalay",
    "emails": [],
    "events": [],
    "familyName": "Atalay",
    "givenName": "Afife",
    "id": 3994,
    "phoneNumbers": [
      {
        "normalizedNumber": "+905301564616",
        "number": "+90 530 156 46 16",
        "type": "MOBILE"
      },
      {
        "normalizedNumber": "+905301564616",
        "number": "+905301564616",
        "type": "MOBILE"
      },
      {
        "normalizedNumber": "+905301564616",
        "number": "+90 530 156 46 16",
        "type": "OTHER"
      }
    ],
    "websites": []
  },
  {
    "addresses": [],
    "displayName": "Afife Atalay",
    "emails": [],
    "events": [],
    "givenName": "Afife Atalay",
    "id": 3661,
    "phoneNumbers": [],
    "websites": []
  },
  {
    "addresses": [],
    "displayName": "Afife Atalay",
    "emails": [],
    "events": [],
    "givenName": "Afife Atalay",
    "id": 3662,
    "phoneNumbers": [],
    "websites": []
  },
  {
    "addresses": [],
    "displayName": "Ahmet Deniz",
    "emails": [],
    "events": [],
    "familyName": "Deniz",
    "givenName": "Ahmet",
    "id": 3867,
    "phoneNumbers": [
      {
        "normalizedNumber": "+905314048097",
        "number": "+905314048097",
        "type": "MOBILE"
      },
      {
        "normalizedNumber": "+905314048097",
        "number": "+90 531 404 8097",
        "type": "MOBILE"
      }
    ],
    "websites": []
  },
  {
    "addresses": [],
    "displayName": "Ahmet Ertan",
    "emails": [],
    "events": [],
    "familyName": "Ertan",
    "givenName": "Ahmet",
    "id": 3978,
    "phoneNumbers": [
      {
        "normalizedNumber": "+905368626665",
        "number": "+90 536 862 66 65",
        "type": "OTHER"
      },
      {
        "normalizedNumber": "+905368626665",
        "number": "+90 536 862 66 65",
        "type": "MOBILE"
      },
      {
        "normalizedNumber": "+905368626665",
        "number": "+905368626665",
        "type": "MOBILE"
      }
    ],
    "websites": []
  },
  {
    "addresses": [],
    "displayName": "Ahmet Ertan",
    "emails": [],
    "events": [],
    "givenName": "Ahmet Ertan",
    "id": 3664,
    "phoneNumbers": [],
    "websites": []
  },
  {
    "addresses": [],
    "displayName": "Ahmet Ertan",
    "emails": [],
    "events": [],
    "givenName": "Ahmet Ertan",
    "id": 3666,
    "phoneNumbers": [],
    "websites": []
  },
  {
    "addresses": [],
    "displayName": "Ahmet Ertan Algan",
    "emails": [],
    "events": [],
    "familyName": "Algan",
    "givenName": "Ahmet",
    "id": 3665,
    "phoneNumbers": [
      {
        "label": "Mobil",
        "normalizedNumber": "+905331446228",
        "number": "+90 533 144 62 28",
        "type": "CUSTOM"
      },
      {
        "normalizedNumber": "+905362338944",
        "number": "+905362338944",
        "type": "MOBILE"
      }
    ],
    "websites": []
  },
  {
    "addresses": [],
    "displayName": "Ahmet Onur",
    "emails": [],
    "events": [],
    "familyName": "Onur",
    "givenName": "Ahmet",
    "id": 3296,
    "phoneNumbers": [
      {
        "normalizedNumber": "+905059220360",
        "number": "05059220360",
        "type": "MOBILE"
      }
    ],
    "websites": []
  },
  {
    "addresses": [],
    "displayName": "Ajia Restoran",
    "emails": [],
    "events": [],
    "familyName": "Restoran",
    "givenName": "Ajia",
    "id": 3874,
    "phoneNumbers": [
      {
        "normalizedNumber": "+902164139300",
        "number": "02164139300",
        "type": "MOBILE"
      }
    ],
    "websites": []
  },
  {
    "addresses": [],
    "displayName": "Akbank Pc Destek",
    "emails": [],
    "events": [],
    "familyName": "Destek",
    "givenName": "Akbank",
    "id": 3824,
    "phoneNumbers": [
      {
        "normalizedNumber": "+902626871818",
        "number": "02626871818",
        "type": "MOBILE"
      }
    ],
    "websites": []
  },
  {
    "addresses": [],
    "displayName": "AkmanTetik",
    "emails": [],
    "events": [],
    "givenName": "AkmanTetik",
    "id": 3132,
    "phoneNumbers": [
      {
        "normalizedNumber": "+902125915812",
        "number": "02125915812",
        "type": "MOBILE"
      }
    ],
    "websites": []
  },
  {
    "addresses": [],
    "displayName": "Ali Abi Nomad",
    "emails": [],
    "events": [],
    "familyName": "Nomad",
    "givenName": "Ali",
    "id": 3668,
    "phoneNumbers": [
      {
        "label": "WhatsApp",
        "normalizedNumber": "+905555250237",
        "number": "05555250237",
        "type": "CUSTOM"
      },
      {
        "normalizedNumber": "+905555250237",
        "number": "0 (555) 525 02 37",
        "type": "CUSTOM"
      }
    ],
    "websites": []
  },
  {
    "addresses": [],
    "displayName": "Ali Bau",
    "emails": [],
    "events": [],
    "familyName": "Bau",
    "givenName": "Ali",
    "id": 3669,
    "phoneNumbers": [
      {
        "normalizedNumber": "+905538060757",
        "number": "+90 553 806 07 57",
        "type": "MOBILE"
      },
      {
        "normalizedNumber": "+905538060757",
        "number": "+905538060757",
        "type": "MOBILE"
      }
    ],
    "websites": []
  },
  {
    "addresses": [],
    "companyName": "Adesso",
    "displayName": "Ali Bey Sigorta",
    "emails": [],
    "events": [],
    "familyName": "Sigorta",
    "givenName": "Ali",
    "id": 3641,
    "phoneNumbers": [
      {
        "normalizedNumber": "+905347928314",
        "number": "+905347928314",
        "type": "MOBILE"
      }
    ],
    "websites": []
  },
  {
    "addresses": [],
    "companyName": "Adesso",
    "displayName": "Ali Kemal",
    "emails": [],
    "events": [],
    "familyName": "Kemal",
    "givenName": "Ali",
    "id": 3667,
    "phoneNumbers": [
      {
        "normalizedNumber": "+905448532353",
        "number": "+905448532353",
        "type": "MOBILE"
      },
      {
        "normalizedNumber": "+905448532353",
        "number": "+90 544 853 23 53",
        "type": "MOBILE"
      }
    ],
    "websites": []
  },
  {
    "addresses": [],
    "displayName": "Ali Kemal",
    "emails": [],
    "events": [],
    "familyName": "Kemal",
    "givenName": "Ali",
    "id": 4283,
    "phoneNumbers": [],
    "websites": []
  },
  {
    "addresses": [],
    "displayName": "Ali Kemal",
    "emails": [],
    "events": [],
    "familyName": "Kemal",
    "givenName": "Ali",
    "id": 4282,
    "phoneNumbers": [],
    "websites": []
  },
  {
    "addresses": [],
    "companyName": "Microsoft",
    "displayName": "Alp Asutay",
    "emails": [],
    "events": [],
    "familyName": "Asutay",
    "givenName": "Alp",
    "id": 4010,
    "phoneNumbers": [
      {
        "normalizedNumber": "+905309772065",
        "number": "0530 977 20 65",
        "type": "MOBILE"
      },
      {
        "normalizedNumber": "+905309772065",
        "number": "05309772065",
        "type": "MOBILE"
      }
    ],
    "websites": []
  },
  {
    "addresses": [],
    "displayName": "Alp(beatles)",
    "emails": [],
    "events": [],
    "givenName": "Alp(beatles)",
    "id": 3670,
    "phoneNumbers": [
      {
        "normalizedNumber": "+905365771675",
        "number": "+90 536 577 16 75",
        "type": "OTHER"
      },
      {
        "normalizedNumber": "+905365771675",
        "number": "+905365771675",
        "type": "MOBILE"
      },
      {
        "normalizedNumber": "+905365771675",
        "number": "+90 536 577 16 75",
        "type": "MOBILE"
      }
    ],
    "websites": []
  },
  {
    "addresses": [],
    "displayName": "Alper Bau",
    "emails": [],
    "events": [],
    "familyName": "Bau",
    "givenName": "Alper",
    "id": 3671,
    "phoneNumbers": [
      {
        "normalizedNumber": "+905417179244",
        "number": "05417179244",
        "type": "MOBILE"
      }
    ],
    "websites": []
  },
  {
    "addresses": [],
    "displayName": "Ananem",
    "emails": [],
    "events": [],
    "givenName": "Ananem",
    "id": 3077,
    "phoneNumbers": [
      {
        "normalizedNumber": "+905326471897",
        "number": "0 (532) 647 18 97",
        "type": "CUSTOM"
      }
    ],
    "websites": []
  },
  {
    "addresses": [],
    "displayName": "Anil Emre",
    "emails": [],
    "events": [],
    "familyName": "Emre",
    "givenName": "Anil",
    "id": 3672,
    "phoneNumbers": [
      {
        "normalizedNumber": "+905448475625",
        "number": "+90 544 847 56 25",
        "type": "MOBILE"
      },
      {
        "normalizedNumber": "+905448475625",
        "number": "+905448475625",
        "type": "MOBILE"
      }
    ],
    "websites": []
  },
  {
    "addresses": [],
    "displayName": "Annem",
    "emails": [],
    "events": [],
    "givenName": "Annem",
    "id": 3177,
    "phoneNumbers": [
      {
        "normalizedNumber": "+905365052114",
        "number": "05365052114",
        "type": "MOBILE"
      }
    ],
    "websites": []
  },
  {
    "addresses": [],
    "displayName": "Arçelik Servis",
    "emails": [],
    "events": [],
    "familyName": "Servis",
    "givenName": "Arçelik",
    "id": 3612,
    "phoneNumbers": [
      {
        "normalizedNumber": "+902164413566",
        "number": "+902164413566",
        "type": "MOBILE"
      }
    ],
    "websites": []
  },
  {
    "addresses": [],
    "displayName": "Aslı",
    "emails": [],
    "events": [],
    "givenName": "Aslı",
    "id": 4212,
    "phoneNumbers": [
      {
        "normalizedNumber": "+905388208335",
        "number": "05388208335",
        "type": "MOBILE"
      },
      {
        "normalizedNumber": "+905388208335",
        "number": "05388208335",
        "type": "OTHER"
      }
    ],
    "websites": []
  },
  {
    "addresses": [],
    "displayName": "Aslı",
    "emails": [],
    "events": [],
    "givenName": "Aslı",
    "id": 3673,
    "phoneNumbers": [],
    "websites": []
  },
  {
    "addresses": [],
    "displayName": "Aslı",
    "emails": [],
    "events": [],
    "givenName": "Aslı",
    "id": 4211,
    "phoneNumbers": [],
    "websites": []
  },
  {
    "addresses": [],
    "displayName": "Autogrand",
    "emails": [],
    "events": [],
    "givenName": "Autogrand",
    "id": 4267,
    "phoneNumbers": [
      {
        "normalizedNumber": "+905332567624",
        "number": "05332567624",
        "type": "MOBILE"
      }
    ],
    "websites": []
  },
  {
    "addresses": [],
    "displayName": "Autogrand Ordulu",
    "emails": [],
    "events": [],
    "familyName": "Ordulu",
    "givenName": "Autogrand",
    "id": 4199,
    "phoneNumbers": [
      {
        "normalizedNumber": "+905352575224",
        "number": "+905352575224",
        "type": "MOBILE"
      }
    ],
    "websites": []
  },
  {
    "addresses": [],
    "displayName": "Avcılar Kültür Kitabevi",
    "emails": [],
    "events": [],
    "familyName": "Kitabevi",
    "givenName": "Avcılar",
    "id": 3235,
    "phoneNumbers": [
      {
        "normalizedNumber": "+905392092474",
        "number": "0 (539) 209 24 74",
        "type": "MOBILE"
      },
      {
        "normalizedNumber": "+905392092474",
        "number": "05392092474",
        "type": "MOBILE"
      }
    ],
    "websites": []
  },
  {
    "addresses": [],
    "displayName": "Avis Havalimanı Elazığ",
    "emails": [],
    "events": [],
    "familyName": "Elazığ",
    "givenName": "Avis",
    "id": 3860,
    "phoneNumbers": [
      {
        "normalizedNumber": "+905334140477",
        "number": "05334140477",
        "type": "MOBILE"
      }
    ],
    "websites": []
  },
  {
    "addresses": [],
    "displayName": "Ayhan Erdönmez",
    "emails": [],
    "events": [],
    "familyName": "Erdönmez",
    "givenName": "Ayhan",
    "id": 3164,
    "phoneNumbers": [
      {
        "normalizedNumber": "+905426510036",
        "number": "05426510036",
        "type": "MOBILE"
      },
      {
        "normalizedNumber": "+905426510036",
        "number": "0 542 651 0036",
        "type": "MOBILE"
      }
    ],
    "websites": []
  },
  {
    "addresses": [],
    "displayName": "Aynur Annem",
    "emails": [],
    "events": [],
    "familyName": "Annem",
    "givenName": "Aynur",
    "id": 3370,
    "phoneNumbers": [
      {
        "normalizedNumber": "+905385539799",
        "number": "0538 553 97 99",
        "type": "MOBILE"
      },
      {
        "normalizedNumber": "+905385539799",
        "number": "05385539799",
        "type": "MOBILE"
      }
    ],
    "websites": []
  },
  {
    "addresses": [],
    "displayName": "Ayşe Erdönmez",
    "emails": [],
    "events": [],
    "familyName": "Erdönmez",
    "givenName": "Ayşe",
    "id": 3280,
    "phoneNumbers": [
      {
        "normalizedNumber": "+905444663391",
        "number": "+90 544 466 3391",
        "type": "MOBILE"
      },
      {
        "normalizedNumber": "+905444663391",
        "number": "+905444663391",
        "type": "MOBILE"
      }
    ],
    "websites": []
  },
  {
    "addresses": [],
    "displayName": "Ayşen",
    "emails": [],
    "events": [],
    "givenName": "Ayşen",
    "id": 3310,
    "phoneNumbers": [
      {
        "normalizedNumber": "+905435981585",
        "number": "+90 543 598 15 85",
        "type": "MOBILE"
      },
      {
        "normalizedNumber": "+905435981585",
        "number": "+905435981585",
        "type": "MOBILE"
      }
    ],
    "websites": []
  },
  {
    "addresses": [],
    "companyName": "Adesso",
    "displayName": "Azat Sayan",
    "emails": [],
    "events": [],
    "familyName": "Sayan",
    "givenName": "Azat",
    "id": 4009,
    "phoneNumbers": [
      {
        "normalizedNumber": "+905348623463",
        "number": "+90 534 862 34 63",
        "type": "MOBILE"
      }
    ],
    "websites": []
  },
  {
    "addresses": [],
    "displayName": "Babam",
    "emails": [],
    "events": [],
    "givenName": "Babam",
    "id": 3438,
    "phoneNumbers": [
      {
        "normalizedNumber": "+905309490298",
        "number": "05309490298",
        "type": "MOBILE"
      },
      {
        "normalizedNumber": "+905309490298",
        "number": "0530 949 02 98",
        "type": "MOBILE"
      }
    ],
    "websites": []
  },
  {
    "addresses": [],
    "displayName": "Bahadır (Burcu)",
    "emails": [],
    "events": [],
    "familyName": "(Burcu)",
    "givenName": "Bahadır",
    "id": 4237,
    "phoneNumbers": [
      {
        "normalizedNumber": "+905511863923",
        "number": "05511863923",
        "type": "MOBILE"
      },
      {
        "normalizedNumber": "+905511863923",
        "number": "0551 186 39 23",
        "type": "MOBILE"
      }
    ],
    "websites": []
  },
  {
    "addresses": [],
    "displayName": "Bahadır Şahin",
    "emails": [],
    "events": [],
    "familyName": "Şahin",
    "givenName": "Bahadır",
    "id": 3675,
    "phoneNumbers": [
      {
        "normalizedNumber": "+905447419502",
        "number": "+90 544 741 95 02",
        "type": "OTHER"
      },
      {
        "normalizedNumber": "+905447419502",
        "number": "+905447419502",
        "type": "MOBILE"
      },
      {
        "normalizedNumber": "+905447419502",
        "number": "+90 544 741 95 02",
        "type": "MOBILE"
      }
    ],
    "websites": []
  },
  {
    "addresses": [],
    "displayName": "Bali Tercüman Arya",
    "emails": [],
    "events": [],
    "familyName": "Arya",
    "givenName": "Bali",
    "id": 3676,
    "phoneNumbers": [
      {
        "normalizedNumber": "+6281338628852",
        "number": "+6281338628852",
        "type": "MOBILE"
      },
      {
        "normalizedNumber": "+6281338628852",
        "number": "+62 813-3862-8852",
        "type": "MOBILE"
      }
    ],
    "websites": []
  },
  {
    "addresses": [],
    "displayName": "Bali Tercüman Arya1",
    "emails": [],
    "events": [],
    "familyName": "Arya1",
    "givenName": "Bali",
    "id": 1844,
    "phoneNumbers": [
      {
        "normalizedNumber": "+6281999630589",
        "number": "+62 819-9963-0589",
        "type": "MOBILE"
      }
    ],
    "websites": []
  },
  {
    "addresses": [],
    "displayName": "Bali Tercüman Arya2",
    "emails": [],
    "events": [],
    "familyName": "Arya2",
    "givenName": "Bali Tercüman",
    "id": 4102,
    "phoneNumbers": [
      {
        "normalizedNumber": "+6281237209489",
        "number": "+62 812-3720-9489",
        "type": "MOBILE"
      },
      {
        "normalizedNumber": "+6281237209489",
        "number": "+6281237209489",
        "type": "MOBILE"
      }
    ],
    "websites": []
  },
  {
    "addresses": [],
    "displayName": "Bali Tercüman Kardeşi",
    "emails": [],
    "events": [],
    "familyName": "Kardeşi",
    "givenName": "Bali",
    "id": 3424,
    "phoneNumbers": [
      {
        "normalizedNumber": "+6285100553876",
        "number": "+62 851-0055-3876",
        "type": "MOBILE"
      },
      {
        "normalizedNumber": "+6285100553876",
        "number": "+6285100553876",
        "type": "MOBILE"
      }
    ],
    "websites": []
  },
  {
    "addresses": [],
    "companyName": "Adesso",
    "displayName": "Banu Odak İk",
    "emails": [],
    "events": [],
    "familyName": "İk",
    "givenName": "Banu",
    "id": 3632,
    "phoneNumbers": [
      {
        "normalizedNumber": "+905418293002",
        "number": "+905418293002",
        "type": "MOBILE"
      },
      {
        "normalizedNumber": "+905418293002",
        "number": "+90 541 829 30 02",
        "type": "MOBILE"
      }
    ],
    "websites": []
  },
  {
    "addresses": [],
    "displayName": "Barış",
    "emails": [],
    "events": [],
    "givenName": "Barış",
    "id": 3472,
    "phoneNumbers": [
      {
        "normalizedNumber": "+905367015625",
        "number": "05367015625",
        "type": "MOBILE"
      }
    ],
    "websites": []
  },
  {
    "addresses": [],
    "displayName": "Barış",
    "emails": [],
    "events": [],
    "givenName": "Barış",
    "id": 3677,
    "phoneNumbers": [],
    "websites": []
  },
  {
    "addresses": [],
    "displayName": "Barış",
    "emails": [],
    "events": [],
    "givenName": "Barış",
    "id": 3678,
    "phoneNumbers": [],
    "websites": []
  },
  {
    "addresses": [],
    "companyName": "T2",
    "displayName": "Barış T2",
    "emails": [],
    "events": [],
    "familyName": "T2",
    "givenName": "Barış",
    "id": 3679,
    "phoneNumbers": [
      {
        "normalizedNumber": "+905306683669",
        "number": "05306683669",
        "type": "MOBILE"
      },
      {
        "normalizedNumber": "+905306683669",
        "number": "0530 668 36 69",
        "type": "MOBILE"
      }
    ],
    "websites": []
  },
  {
    "addresses": [],
    "displayName": "Batu",
    "emails": [],
    "events": [],
    "givenName": "Batu",
    "id": 3834,
    "phoneNumbers": [],
    "websites": []
  },
  {
    "addresses": [],
    "companyName": "Adesso",
    "displayName": "Batuhan Ballı",
    "emails": [],
    "events": [],
    "familyName": "Ballı",
    "givenName": "Batuhan",
    "id": 3680,
    "phoneNumbers": [
      {
        "normalizedNumber": "+905385532930",
        "number": "+905385532930",
        "type": "MOBILE"
      }
    ],
    "websites": []
  },
  {
    "addresses": [],
    "companyName": "Adesso",
    "displayName": "Batuhan Şimşek",
    "emails": [],
    "events": [],
    "familyName": "Şimşek",
    "givenName": "Batuhan",
    "id": 3271,
    "phoneNumbers": [
      {
        "normalizedNumber": "+905542729512",
        "number": "+90 554 272 95 12",
        "type": "MOBILE"
      },
      {
        "normalizedNumber": "+905542729512",
        "number": "+905542729512",
        "type": "MOBILE"
      }
    ],
    "websites": []
  },
  {
    "addresses": [],
    "displayName": "Bau Jpn Ders",
    "emails": [],
    "events": [],
    "familyName": "Ders",
    "givenName": "Bau",
    "id": 4038,
    "phoneNumbers": [
      {
        "normalizedNumber": "+905342220812",
        "number": "+905342220812",
        "type": "MOBILE"
      }
    ],
    "websites": []
  },
  {
    "addresses": [],
    "displayName": "Başak (berat)",
    "emails": [],
    "events": [],
    "familyName": "(berat)",
    "givenName": "Başak",
    "id": 4225,
    "phoneNumbers": [
      {
        "normalizedNumber": "+905337353512",
        "number": "0533 735 35 12",
        "type": "MOBILE"
      },
      {
        "normalizedNumber": "+905337353512",
        "number": "05337353512",
        "type": "MOBILE"
      }
    ],
    "websites": []
  },
  {
    "addresses": [],
    "companyName": "Turkcell",
    "displayName": "Begüm İk",
    "emails": [],
    "events": [],
    "familyName": "İk",
    "givenName": "Begüm",
    "id": 4254,
    "phoneNumbers": [
      {
        "normalizedNumber": "+905325551408",
        "number": "05325551408",
        "type": "MOBILE"
      }
    ],
    "websites": []
  },
  {
    "addresses": [],
    "displayName": "Berat",
    "emails": [],
    "events": [],
    "givenName": "Berat",
    "id": 3683,
    "phoneNumbers": [
      {
        "normalizedNumber": "+905469542894",
        "number": "05469542894",
        "type": "MOBILE"
      },
      {
        "normalizedNumber": "+905469542894",
        "number": "05469542894",
        "type": "OTHER"
      }
    ],
    "websites": []
  },
  {
    "addresses": [],
    "displayName": "Berat Beleş",
    "emails": [],
    "events": [],
    "familyName": "Beleş",
    "givenName": "Berat",
    "id": 4105,
    "phoneNumbers": [
      {
        "normalizedNumber": "+905385902328",
        "number": "+905385902328",
        "type": "MOBILE"
      },
      {
        "normalizedNumber": "+905385902328",
        "number": "+90 538 590 23 28",
        "type": "MOBILE"
      }
    ],
    "websites": []
  },
  {
    "addresses": [],
    "displayName": "Berat Cangaytar",
    "emails": [],
    "events": [],
    "familyName": "Cangaytar",
    "givenName": "Berat",
    "id": 4127,
    "phoneNumbers": [
      {
        "normalizedNumber": "+905322613830",
        "number": "+905322613830",
        "type": "MOBILE"
      }
    ],
    "websites": []
  },
  {
    "addresses": [],
    "displayName": "Berat Küley",
    "emails": [],
    "events": [],
    "familyName": "Küley",
    "givenName": "Berat",
    "id": 3684,
    "phoneNumbers": [
      {
        "normalizedNumber": "+905466888651",
        "number": "+905466888651",
        "type": "MOBILE"
      }
    ],
    "websites": []
  },
  {
    "addresses": [],
    "displayName": "Berat Uslu",
    "emails": [],
    "events": [],
    "familyName": "Uslu",
    "givenName": "Berat",
    "id": 4029,
    "phoneNumbers": [
      {
        "normalizedNumber": "+905324482475",
        "number": "+905324482475",
        "type": "MOBILE"
      },
      {
        "normalizedNumber": "+905324482475",
        "number": "+90 532 448 24 75",
        "type": "MOBILE"
      }
    ],
    "websites": []
  },
  {
    "addresses": [],
    "displayName": "Beren Uzun",
    "emails": [],
    "events": [],
    "familyName": "Uzun",
    "givenName": "Beren",
    "id": 3317,
    "phoneNumbers": [
      {
        "normalizedNumber": "+905387205288",
        "number": "05387205288",
        "type": "MOBILE"
      }
    ],
    "websites": []
  },
  {
    "addresses": [],
    "displayName": "Berfin",
    "emails": [],
    "events": [],
    "givenName": "Berfin",
    "id": 4277,
    "phoneNumbers": [
      {
        "normalizedNumber": "+905357012105",
        "number": "05357012105",
        "type": "MOBILE"
      }
    ],
    "websites": []
  },
  {
    "addresses": [],
    "displayName": "Berna Elmas",
    "emails": [],
    "events": [],
    "familyName": "Elmas",
    "givenName": "Berna",
    "id": 3188,
    "phoneNumbers": [
      {
        "normalizedNumber": "+905389138994",
        "number": "+905389138994",
        "type": "MOBILE"
      },
      {
        "normalizedNumber": "+905389138994",
        "number": "+90 538 913 8994",
        "type": "MOBILE"
      }
    ],
    "websites": []
  },
  {
    "addresses": [],
    "displayName": "Beyza Nur",
    "emails": [],
    "events": [],
    "familyName": "Nur",
    "givenName": "Beyza",
    "id": 3254,
    "phoneNumbers": [
      {
        "normalizedNumber": "+905305232083",
        "number": "+905305232083",
        "type": "MOBILE"
      },
      {
        "normalizedNumber": "+905305232083",
        "number": "+90 530 523 2083",
        "type": "MOBILE"
      }
    ],
    "websites": []
  },
  {
    "addresses": [],
    "displayName": "Beyza Nur Erdönmez",
    "emails": [],
    "events": [],
    "familyName": "Erdönmez",
    "givenName": "Beyza",
    "id": 3247,
    "phoneNumbers": [
      {
        "normalizedNumber": "+905305232083",
        "number": "+90 (530) 523 20 83",
        "type": "MOBILE"
      }
    ],
    "websites": []
  },
  {
    "addresses": [],
    "companyName": "Adesso",
    "displayName": "Bilal",
    "emails": [],
    "events": [],
    "givenName": "Bilal",
    "id": 3686,
    "phoneNumbers": [
      {
        "normalizedNumber": "+905367015777",
        "number": "+905367015777",
        "type": "MOBILE"
      },
      {
        "normalizedNumber": "+905367015777",
        "number": "+90 536 701 57 77",
        "type": "MOBILE"
      }
    ],
    "websites": []
  },
  {
    "addresses": [],
    "displayName": "Bilal Abey",
    "emails": [],
    "events": [],
    "familyName": "Abey",
    "givenName": "Bilal",
    "id": 4128,
    "phoneNumbers": [
      {
        "normalizedNumber": "+905455797093",
        "number": "+905455797093",
        "type": "HOME"
      }
    ],
    "websites": []
  },
  {
    "addresses": [],
    "displayName": "Bora Abi",
    "emails": [],
    "events": [],
    "givenName": "Bora Abi",
    "id": 3687,
    "phoneNumbers": [],
    "websites": []
  },
  {
    "addresses": [],
    "displayName": "Bostancı 11",
    "emails": [],
    "events": [],
    "familyName": "11",
    "givenName": "Bostancı",
    "id": 3688,
    "phoneNumbers": [
      {
        "normalizedNumber": "+905547523916",
        "number": "05547523916",
        "type": "MOBILE"
      }
    ],
    "websites": []
  },
  {
    "addresses": [],
    "displayName": "Bostancı 8.45",
    "emails": [],
    "events": [],
    "familyName": "",
    "givenName": "Bostancı",
    "id": 1847,
    "phoneNumbers": [
      {
        "normalizedNumber": "+905375813557",
        "number": "05375813557",
        "type": "MOBILE"
      }
    ],
    "websites": []
  },
  {
    "addresses": [],
    "displayName": "Buket Obss İk",
    "emails": [],
    "events": [],
    "familyName": "İk",
    "givenName": "Buket",
    "id": 2847,
    "phoneNumbers": [
      {
        "normalizedNumber": "+902166883436",
        "number": "+902166883436",
        "type": "MOBILE"
      }
    ],
    "websites": []
  },
  {
    "addresses": [],
    "displayName": "Burak Kiremitçi",
    "emails": [],
    "events": [],
    "familyName": "Kiremitçi",
    "givenName": "Burak",
    "id": 4215,
    "phoneNumbers": [
      {
        "normalizedNumber": "+905346137979",
        "number": "+905346137979",
        "type": "MOBILE"
      },
      {
        "normalizedNumber": "+905346137979",
        "number": "+90 534 613 7979",
        "type": "MOBILE"
      }
    ],
    "websites": []
  },
  {
    "addresses": [],
    "displayName": "Burak Kiremitçi",
    "emails": [],
    "events": [],
    "familyName": "Kiremitçi",
    "givenName": "Burak",
    "id": 3689,
    "phoneNumbers": [],
    "websites": []
  },
  {
    "addresses": [],
    "displayName": "Burak Kiremitçi",
    "emails": [],
    "events": [],
    "familyName": "Kiremitçi",
    "givenName": "Burak",
    "id": 4214,
    "phoneNumbers": [],
    "websites": []
  },
  {
    "addresses": [],
    "displayName": "Burak Nomad",
    "emails": [],
    "events": [],
    "familyName": "Nomad",
    "givenName": "Burak",
    "id": 3217,
    "phoneNumbers": [
      {
        "normalizedNumber": "+905343639223",
        "number": "+905343639223",
        "type": "MOBILE"
      },
      {
        "normalizedNumber": "+905343639223",
        "number": "+90 534 363 9223",
        "type": "MOBILE"
      }
    ],
    "websites": []
  },
  {
    "addresses": [],
    "displayName": "Burak Uçar",
    "emails": [],
    "events": [],
    "familyName": "Uçar",
    "givenName": "Burak",
    "id": 3998,
    "phoneNumbers": [
      {
        "normalizedNumber": "+905378480858",
        "number": "+90 537 848 0858",
        "type": "OTHER"
      },
      {
        "normalizedNumber": "+905378480858",
        "number": "+90 537 848 0858",
        "type": "MOBILE"
      },
      {
        "normalizedNumber": "+905378480858",
        "number": "+905378480858",
        "type": "MOBILE"
      }
    ],
    "websites": []
  },
  {
    "addresses": [],
    "displayName": "Burak Zbko",
    "emails": [],
    "events": [],
    "familyName": "Zbko",
    "givenName": "Burak",
    "id": 3875,
    "phoneNumbers": [
      {
        "normalizedNumber": "+905383752696",
        "number": "+90 538 375 2696",
        "type": "MOBILE"
      },
      {
        "normalizedNumber": "+905383752696",
        "number": "+905383752696",
        "type": "MOBILE"
      }
    ],
    "websites": []
  },
  {
    "addresses": [],
    "displayName": "Burcu",
    "emails": [],
    "events": [],
    "givenName": "Burcu",
    "id": 3690,
    "phoneNumbers": [
      {
        "normalizedNumber": "+905465325836",
        "number": "05465325836",
        "type": "MOBILE"
      },
      {
        "normalizedNumber": "+905465325836",
        "number": "0546 532 58 36",
        "type": "MOBILE"
      }
    ],
    "websites": []
  },
  {
    "addresses": [],
    "displayName": "Buğra Nomad",
    "emails": [],
    "events": [],
    "familyName": "Nomad",
    "givenName": "Buğra",
    "id": 4129,
    "phoneNumbers": [
      {
        "normalizedNumber": "+905544808185",
        "number": "+905544808185",
        "type": "MOBILE"
      },
      {
        "normalizedNumber": "+905544808185",
        "number": "+905544808185",
        "type": "OTHER"
      }
    ],
    "websites": []
  },
  {
    "addresses": [],
    "displayName": "Bülent Türkmen",
    "emails": [],
    "events": [],
    "familyName": "Türkmen",
    "givenName": "Bülent",
    "id": 4264,
    "phoneNumbers": [
      {
        "normalizedNumber": "+905373018200",
        "number": "05373018200",
        "type": "MOBILE"
      },
      {
        "normalizedNumber": "+905373018200",
        "number": "0537 301 82 00",
        "type": "MOBILE"
      }
    ],
    "websites": []
  },
  {
    "addresses": [],
    "companyName": "Akbank",
    "displayName": "Büşra Başbahçıvan",
    "emails": [],
    "events": [],
    "familyName": "Başbahçıvan",
    "givenName": "Büşra",
    "id": 3448,
    "phoneNumbers": [
      {
        "normalizedNumber": "+905393121955",
        "number": "+90 539 312 19 55",
        "type": "MOBILE"
      },
      {
        "normalizedNumber": "+905393121955",
        "number": "+905393121955",
        "type": "MOBILE"
      }
    ],
    "websites": []
  },
  {
    "addresses": [],
    "displayName": "Büşra Temur",
    "emails": [],
    "events": [],
    "familyName": "Temur",
    "givenName": "Büşra",
    "id": 4241,
    "phoneNumbers": [
      {
        "normalizedNumber": "+905326369094",
        "number": "+90 532 636 90 94",
        "type": "MOBILE"
      },
      {
        "normalizedNumber": "+905326369094",
        "number": "+905326369094",
        "type": "MOBILE"
      }
    ],
    "websites": []
  },
  {
    "addresses": [],
    "displayName": "Cagkan Aksun Yuksel",
    "emails": [],
    "events": [],
    "familyName": "Yuksel",
    "givenName": "Cagkan Aksun",
    "id": 3691,
    "phoneNumbers": [],
    "websites": []
  },
  {
    "addresses": [],
    "displayName": "Cagkan Aksun Yuksel",
    "emails": [],
    "events": [],
    "familyName": "Yuksel",
    "givenName": "Cagkan Aksun",
    "id": 3692,
    "phoneNumbers": [],
    "websites": []
  },
  {
    "addresses": [],
    "displayName": "Camcı",
    "emails": [],
    "events": [],
    "givenName": "Camcı",
    "id": 3485,
    "phoneNumbers": [
      {
        "normalizedNumber": "+905369451482",
        "number": "0536 945 14 82",
        "type": "OTHER"
      },
      {
        "normalizedNumber": "+905369451482",
        "number": "0536 945 14 82",
        "type": "MOBILE"
      },
      {
        "normalizedNumber": "+905369451482",
        "number": "05369451482",
        "type": "MOBILE"
      }
    ],
    "websites": []
  },
  {
    "addresses": [],
    "companyName": "Adesso",
    "displayName": "Can Baybunar",
    "emails": [],
    "events": [],
    "familyName": "Baybunar",
    "givenName": "Can",
    "id": 4048,
    "phoneNumbers": [
      {
        "normalizedNumber": "+905324610371",
        "number": "+905324610371",
        "type": "MOBILE"
      },
      {
        "normalizedNumber": "+905324610371",
        "number": "+90 532 461 03 71",
        "type": "MOBILE"
      },
      {
        "normalizedNumber": "+905324610371",
        "number": "+90 532 461 03 71",
        "type": "OTHER"
      }
    ],
    "websites": []
  },
  {
    "addresses": [],
    "displayName": "Can Foto",
    "emails": [],
    "events": [],
    "familyName": "Foto",
    "givenName": "Can",
    "id": 3694,
    "phoneNumbers": [
      {
        "normalizedNumber": "+905437653314",
        "number": "+905437653314",
        "type": "MOBILE"
      }
    ],
    "websites": []
  },
  {
    "addresses": [],
    "companyName": "Adesso",
    "displayName": "Can Gür",
    "emails": [],
    "events": [],
    "familyName": "Gür",
    "givenName": "Can",
    "id": 3695,
    "phoneNumbers": [
      {
        "normalizedNumber": "+905536339459",
        "number": "+90 553 633 94 59",
        "type": "MOBILE"
      },
      {
        "normalizedNumber": "+905536339459",
        "number": "+905536339459",
        "type": "MOBILE"
      }
    ],
    "websites": []
  },
  {
    "addresses": [],
    "companyName": "Akbank",
    "displayName": "Can Şenel",
    "emails": [],
    "events": [],
    "familyName": "Şenel",
    "givenName": "Can",
    "id": 4222,
    "phoneNumbers": [
      {
        "normalizedNumber": "+905363254233",
        "number": "+90 536 325 42 33",
        "type": "MOBILE"
      },
      {
        "normalizedNumber": "+905363254233",
        "number": "+905363254233",
        "type": "MOBILE"
      }
    ],
    "websites": []
  },
  {
    "addresses": [],
    "displayName": "Cansu Conker",
    "emails": [],
    "events": [],
    "familyName": "Conker",
    "givenName": "Cansu",
    "id": 3314,
    "phoneNumbers": [
      {
        "normalizedNumber": "+905398907589",
        "number": "+90 539 890 7589",
        "type": "MOBILE"
      },
      {
        "normalizedNumber": "+905398907589",
        "number": "+905398907589",
        "type": "MOBILE"
      }
    ],
    "websites": []
  } ]
